Bienvenue sur le blog de valentin - TD3ravancé
…
dbDisconnect(connexion)

Question 7

data_sqlite <- "C:\\Users\\cyril\\OneDrive\\Documents\\exercice.R\\data\\data.sqlite"

connexion <- dbConnect(SQLite(), data_sqlite)

olympics_athletes <- dbReadTable(connexion, "olympics_athletes")

olympics_athletes_tibble <- as_tibble(olympics_athletes)

print(olympics_athletes_tibble)

# A tibble: 269,731 × 13
      ID Name      Sex     Age Height Weight Team  NOC   Games City  Sport Event
   <int> <chr>     <chr> <int>  <int>  <dbl> <chr> <chr> <chr> <chr> <chr> <chr>
 1     1 A Dijiang M        24    180     80 China CHN   1992… Barc… Bask… Bask…
 2     2 A Lamusi  M        23    170     60 China CHN   2012… Lond… Judo  Judo…
 3     3 Gunnar N… M        24     NA     NA Denm… DEN   1920… Antw… Foot… Foot…
 4     4 Edgar Li… M        34     NA     NA Denm… DEN   1900… Paris Tug-… Tug-…
 5     5 Christin… F        21    185     82 Neth… NED   1988… Calg… Spee… Spee…
 6     5 Christin… F        21    185     82 Neth… NED   1988… Calg… Spee… Spee…
 7     5 Christin… F        25    185     82 Neth… NED   1992… Albe… Spee… Spee…
 8     5 Christin… F        25    185     82 Neth… NED   1992… Albe… Spee… Spee…
 9     5 Christin… F        27    185     82 Neth… NED   1994… Lill… Spee… Spee…
10     5 Christin… F        27    185     82 Neth… NED   1994… Lill… Spee… Spee…
# ℹ 269,721 more rows
# ℹ 1 more variable: Medal <chr>
…
plus_vieux <- moyenne_age %>%
  filter(moyenne_age == max(moyenne_age))  
cat("Moyenne d'âge pour chaque édition des JO d'été :\n")

Moyenne d'âge pour chaque édition des JO d'été :

print(moyenne_age)

# A tibble: 29 × 2
    Year moyenne_age
   <int>       <dbl>
 1  1896        23.6
 2  1900        28.9
 3  1904        26.7
 4  1906        27.1
 5  1908        27.0
 6  1912        27.5
 7  1920        29.3
 8  1924        28.1
 9  1928        28.0
10  1932        30.2
# ℹ 19 more rows
…
print(plus_grande_taille)

# A tibble: 1 × 2
  Sport      max_height
  <chr>           <int>
1 Basketball        213

cat("\nNombre de fois où chaque discipline a été la discipline avec la plus grande taille des athlètes :\n")

Nombre de fois où chaque discipline a été la discipline avec la plus grande taille des athlètes :

print(nombre_max_taille)

# A tibble: 50 × 2
   Sport            nombre_max
   <chr>                 <int>
 1 Alpine Skiing             1
 2 Archery                   1
 3 Art Competitions          1
 4 Athletics                 1
 5 Badminton                 1
 6 Basketball                1
 7 Beach Volleyball          1
 8 Biathlon                  1
 9 Bobsleigh                 1
10 Boxing                    1
# ℹ 40 more rows
…
